<svg xmlns="http://www.w3.org/2000/svg" width="23.154" height="24.047" viewBox="0 0 23.154 24.047">
  <path id="search" d="M24.011,23.278l-6.746-7.016a9.542,9.542,0,1,0-.671.612l6.762,7.033a.454.454,0,0,0,.655-.629ZM10.517,18.16a8.626,8.626,0,1,1,8.626-8.626A8.636,8.636,0,0,1,10.517,18.16Z" transform="translate(-0.983)" fill="#666"/>
</svg>
